{
	"name": "ls_formula1storageaccount16",
	"type": "Microsoft.DataFactory/factories/linkedservices",
	"properties": {
		"annotations": [],
		"type": "AzureBlobFS",
		"typeProperties": {
			"url": "https://formula1storageaccount16.dfs.core.windows.net/",
			"encryptedCredential": "ew0KICAiVmVyc2lvbiI6ICIyMDE3LTExLTMwIiwNCiAgIlByb3RlY3Rpb25Nb2RlIjogIktleSIsDQogICJTZWNyZXRDb250ZW50VHlwZSI6ICJQbGFpbnRleHQiLA0KICAiQ3JlZGVudGlhbElkIjogIkRBVEFGQUNUT1JZQEI3RDQ3NjQ3LTVBQkMtNEZFOC04NURGLTIyRkQyQzhDMEJENl82NDcwMjk5MC0xYjQzLTQ1ODItYTAyMS1hOWE3YzEwMWM0MmMiDQp9"
		}
	}
}